EESchema Schematic File Version 4
EELAYER 30 0
EELAYER END
$Descr USLetter 11000 8500
encoding utf-8
Sheet 2 7
Title "MulticompX System Board"
Date "2020-11-29"
Rev "1.0"
Comp ""
Comment1 ""
Comment2 ""
Comment3 "From an original design by David G. Conroy (http://www.fpgaretrocomputing.org)"
Comment4 "Copyright © 2020 Rob Gowin. Licensed under CC BY-NC-SA 4.0."
$EndDescr
$Comp
L AS6C4008-55PCN:AS6C4008-55PCN U502
U 1 1 5D4F3E57
P 2600 2400
F 0 "U502" H 2600 3970 50  0000 C CNN
F 1 "AS6C4008-55PCN" H 2600 3879 50  0000 C CNN
F 2 "Package_DIP:DIP-32_W15.24mm_Socket_LongPads" H 2600 2400 50  0001 L BNN
F 3 "Unavailable" H 2600 2400 50  0001 L BNN
F 4 "SRAM 512Kx8 55ns DIP32 RoHSconf" H 2600 2400 50  0001 L BNN "Field4"
F 5 "Alliance Memory," H 2600 2400 50  0001 L BNN "Field5"
F 6 "None" H 2600 2400 50  0001 L BNN "Field6"
F 7 "AS6C4008-55PCN" H 2600 2400 50  0001 L BNN "Field7"
F 8 "DIP-32 Alliance Semiconductor" H 2600 2400 50  0001 L BNN "Field8"
	1    2600 2400
	1    0    0    -1  
$EndComp
Text Label 1650 1800 0    50   ~ 0
MAR35
Wire Wire Line
	1600 1800 1900 1800
Entry Wire Line
	1500 1900 1600 1800
Wire Wire Line
	1600 1900 1900 1900
Wire Wire Line
	1600 2000 1900 2000
Wire Wire Line
	1600 2100 1900 2100
Wire Wire Line
	1600 2200 1900 2200
Wire Wire Line
	1600 2300 1900 2300
Wire Wire Line
	1600 2400 1900 2400
Wire Wire Line
	1600 2500 1900 2500
Wire Wire Line
	1600 2600 1900 2600
Wire Wire Line
	1600 2700 1900 2700
Wire Wire Line
	1600 2800 1900 2800
Wire Wire Line
	1600 2900 1900 2900
Wire Wire Line
	1600 3000 1900 3000
Wire Wire Line
	1600 3100 1900 3100
Wire Wire Line
	1600 3200 1900 3200
Wire Wire Line
	1600 3300 1900 3300
Wire Wire Line
	1600 3400 1900 3400
Wire Wire Line
	1600 3500 1900 3500
Wire Wire Line
	1600 3600 1900 3600
Text Label 1650 1900 0    50   ~ 0
MAR34
Text Label 1650 2000 0    50   ~ 0
MAR33
Text Label 1650 2100 0    50   ~ 0
MAR32
Text Label 1650 2200 0    50   ~ 0
MAR31
Text Label 1650 2300 0    50   ~ 0
MAR30
Text Label 1650 2400 0    50   ~ 0
MAR29
Text Label 1650 2500 0    50   ~ 0
MAR28
Text Label 1650 2600 0    50   ~ 0
MAR27
Text Label 1650 2700 0    50   ~ 0
MAR26
Text Label 1650 2800 0    50   ~ 0
MAR25
Text Label 1650 2900 0    50   ~ 0
MAR24
Text Label 1650 3000 0    50   ~ 0
MAR23
Text Label 1650 3100 0    50   ~ 0
MAR22
Text Label 1650 3200 0    50   ~ 0
MAR21
Text Label 1650 3300 0    50   ~ 0
MAR20
Text Label 1650 3400 0    50   ~ 0
MAR19
Text Label 1650 3500 0    50   ~ 0
MAR18
Text Label 1650 3600 0    50   ~ 0
MAR17
Entry Wire Line
	1500 2000 1600 1900
Entry Wire Line
	1500 2100 1600 2000
Entry Wire Line
	1500 2200 1600 2100
Entry Wire Line
	1500 2300 1600 2200
Entry Wire Line
	1500 2400 1600 2300
Entry Wire Line
	1500 2500 1600 2400
Entry Wire Line
	1500 2600 1600 2500
Entry Wire Line
	1500 2700 1600 2600
Entry Wire Line
	1500 2800 1600 2700
Entry Wire Line
	1500 2900 1600 2800
Entry Wire Line
	1500 3000 1600 2900
Entry Wire Line
	1500 3100 1600 3000
Entry Wire Line
	1500 3200 1600 3100
Entry Wire Line
	1500 3300 1600 3200
Entry Wire Line
	1500 3400 1600 3300
Entry Wire Line
	1500 3500 1600 3400
Entry Wire Line
	1500 3600 1600 3500
Entry Wire Line
	1500 3700 1600 3600
$Comp
L power:GND #PWR0101
U 1 1 5D4F4D98
P 1800 3900
F 0 "#PWR0101" H 1800 3650 50  0001 C CNN
F 1 "GND" H 1805 3727 50  0000 C CNN
F 2 "" H 1800 3900 50  0001 C CNN
F 3 "" H 1800 3900 50  0001 C CNN
	1    1800 3900
	1    0    0    -1  
$EndComp
Wire Wire Line
	1800 3900 1800 3800
Wire Wire Line
	1800 3800 1900 3800
Wire Wire Line
	3300 1200 3600 1200
Text Label 3350 1200 0    50   ~ 0
MD16
Wire Wire Line
	3300 1300 3600 1300
Wire Wire Line
	3300 1400 3600 1400
Wire Wire Line
	3300 1500 3600 1500
Wire Wire Line
	3300 1600 3600 1600
Wire Wire Line
	3300 1700 3600 1700
Wire Wire Line
	3300 1800 3600 1800
Text Label 3350 1300 0    50   ~ 0
MD17
Text Label 3350 1400 0    50   ~ 0
MD18
Text Label 3350 1500 0    50   ~ 0
MD19
Text Label 3350 1600 0    50   ~ 0
MD20
Text Label 3350 1700 0    50   ~ 0
MD21
Text Label 3350 1800 0    50   ~ 0
MD22
Wire Wire Line
	3300 1900 3600 1900
Text Label 3350 1900 0    50   ~ 0
MD23
Entry Wire Line
	3600 1200 3700 1300
Entry Wire Line
	3600 1300 3700 1400
Entry Wire Line
	3600 1400 3700 1500
Entry Wire Line
	3600 1500 3700 1600
Entry Wire Line
	3600 1600 3700 1700
Entry Wire Line
	3600 1700 3700 1800
Entry Wire Line
	3600 1800 3700 1900
Entry Wire Line
	3600 1900 3700 2000
$Comp
L AS6C4008-55PCN:AS6C4008-55PCN U503
U 1 1 5D4F8822
P 5700 2400
F 0 "U503" H 5700 3970 50  0000 C CNN
F 1 "AS6C4008-55PCN" H 5700 3879 50  0000 C CNN
F 2 "Package_DIP:DIP-32_W15.24mm_Socket_LongPads" H 5700 2400 50  0001 L BNN
F 3 "Unavailable" H 5700 2400 50  0001 L BNN
F 4 "SRAM 512Kx8 55ns DIP32 RoHSconf" H 5700 2400 50  0001 L BNN "Field4"
F 5 "Alliance Memory," H 5700 2400 50  0001 L BNN "Field5"
F 6 "None" H 5700 2400 50  0001 L BNN "Field6"
F 7 "AS6C4008-55PCN" H 5700 2400 50  0001 L BNN "Field7"
F 8 "DIP-32 Alliance Semiconductor" H 5700 2400 50  0001 L BNN "Field8"
	1    5700 2400
	1    0    0    -1  
$EndComp
Entry Wire Line
	4600 1900 4700 1800
Entry Wire Line
	4600 2000 4700 1900
Entry Wire Line
	4600 2100 4700 2000
Entry Wire Line
	4600 2200 4700 2100
Entry Wire Line
	4600 2300 4700 2200
Entry Wire Line
	4600 2400 4700 2300
Entry Wire Line
	4600 2500 4700 2400
Entry Wire Line
	4600 2600 4700 2500
Entry Wire Line
	4600 2700 4700 2600
Entry Wire Line
	4600 2800 4700 2700
Entry Wire Line
	4600 2900 4700 2800
Entry Wire Line
	4600 3000 4700 2900
Entry Wire Line
	4600 3100 4700 3000
Entry Wire Line
	4600 3200 4700 3100
Entry Wire Line
	4600 3300 4700 3200
Entry Wire Line
	4600 3400 4700 3300
Entry Wire Line
	4600 3500 4700 3400
Entry Wire Line
	4600 3600 4700 3500
Entry Wire Line
	4600 3700 4700 3600
$Comp
L power:GND #PWR0103
U 1 1 5D4F8861
P 4900 3900
F 0 "#PWR0103" H 4900 3650 50  0001 C CNN
F 1 "GND" H 4905 3727 50  0000 C CNN
F 2 "" H 4900 3900 50  0001 C CNN
F 3 "" H 4900 3900 50  0001 C CNN
	1    4900 3900
	1    0    0    -1  
$EndComp
Wire Wire Line
	4900 3900 4900 3800
Wire Wire Line
	4900 3800 5000 3800
Wire Wire Line
	6400 1200 6700 1200
Text Label 6450 1200 0    50   ~ 0
MD24
Wire Wire Line
	6400 1300 6700 1300
Wire Wire Line
	6400 1400 6700 1400
Wire Wire Line
	6400 1500 6700 1500
Wire Wire Line
	6400 1600 6700 1600
Wire Wire Line
	6400 1700 6700 1700
Wire Wire Line
	6400 1800 6700 1800
Text Label 6450 1300 0    50   ~ 0
MD25
Text Label 6450 1400 0    50   ~ 0
MD26
Text Label 6450 1500 0    50   ~ 0
MD27
Text Label 6450 1600 0    50   ~ 0
MD28
Text Label 6450 1700 0    50   ~ 0
MD29
Text Label 6450 1800 0    50   ~ 0
MD30
Wire Wire Line
	6400 1900 6700 1900
Text Label 6450 1900 0    50   ~ 0
MD31
Entry Wire Line
	6700 1200 6800 1300
Entry Wire Line
	6700 1300 6800 1400
Entry Wire Line
	6700 1400 6800 1500
Entry Wire Line
	6700 1500 6800 1600
Entry Wire Line
	6700 1600 6800 1700
Entry Wire Line
	6700 1700 6800 1800
Entry Wire Line
	6700 1800 6800 1900
Entry Wire Line
	6700 1900 6800 2000
$Comp
L AS6C4008-55PCN:AS6C4008-55PCN U504
U 1 1 5D4F9EB4
P 8800 2400
F 0 "U504" H 8800 3970 50  0000 C CNN
F 1 "AS6C4008-55PCN" H 8800 3879 50  0000 C CNN
F 2 "Package_DIP:DIP-32_W15.24mm_Socket_LongPads" H 8800 2400 50  0001 L BNN
F 3 "Unavailable" H 8800 2400 50  0001 L BNN
F 4 "SRAM 512Kx8 55ns DIP32 RoHSconf" H 8800 2400 50  0001 L BNN "Field4"
F 5 "Alliance Memory," H 8800 2400 50  0001 L BNN "Field5"
F 6 "None" H 8800 2400 50  0001 L BNN "Field6"
F 7 "AS6C4008-55PCN" H 8800 2400 50  0001 L BNN "Field7"
F 8 "DIP-32 Alliance Semiconductor" H 8800 2400 50  0001 L BNN "Field8"
	1    8800 2400
	1    0    0    -1  
$EndComp
Entry Wire Line
	7700 1900 7800 1800
Entry Wire Line
	7700 2000 7800 1900
Entry Wire Line
	7700 2100 7800 2000
Entry Wire Line
	7700 2200 7800 2100
Entry Wire Line
	7700 2300 7800 2200
Entry Wire Line
	7700 2400 7800 2300
Entry Wire Line
	7700 2500 7800 2400
Entry Wire Line
	7700 2600 7800 2500
Entry Wire Line
	7700 2700 7800 2600
Entry Wire Line
	7700 2800 7800 2700
Entry Wire Line
	7700 2900 7800 2800
Entry Wire Line
	7700 3000 7800 2900
Entry Wire Line
	7700 3100 7800 3000
Entry Wire Line
	7700 3200 7800 3100
Entry Wire Line
	7700 3300 7800 3200
Entry Wire Line
	7700 3400 7800 3300
Entry Wire Line
	7700 3500 7800 3400
Entry Wire Line
	7700 3600 7800 3500
Entry Wire Line
	7700 3700 7800 3600
$Comp
L power:GND #PWR0105
U 1 1 5D4F9EF3
P 8000 3900
F 0 "#PWR0105" H 8000 3650 50  0001 C CNN
F 1 "GND" H 8005 3727 50  0000 C CNN
F 2 "" H 8000 3900 50  0001 C CNN
F 3 "" H 8000 3900 50  0001 C CNN
	1    8000 3900
	1    0    0    -1  
$EndComp
Wire Wire Line
	8000 3900 8000 3800
Wire Wire Line
	8000 3800 8100 3800
Wire Wire Line
	9500 1200 9800 1200
Text Label 9550 1200 0    50   ~ 0
MD32
Wire Wire Line
	9500 1300 9800 1300
Wire Wire Line
	9500 1400 9800 1400
Wire Wire Line
	9500 1500 9800 1500
Text Label 9550 1300 0    50   ~ 0
MD33
Text Label 9550 1400 0    50   ~ 0
MD34
Text Label 9550 1500 0    50   ~ 0
MD35
Entry Wire Line
	9800 1200 9900 1300
Entry Wire Line
	9800 1300 9900 1400
Entry Wire Line
	9800 1400 9900 1500
$Comp
L AS6C4008-55PCN:AS6C4008-55PCN U501
U 1 1 5D505300
P 2600 6300
F 0 "U501" H 2600 7870 50  0000 C CNN
F 1 "AS6C4008-55PCN" H 2600 7779 50  0000 C CNN
F 2 "Package_DIP:DIP-32_W15.24mm_Socket_LongPads" H 2600 6300 50  0001 L BNN
F 3 "Unavailable" H 2600 6300 50  0001 L BNN
F 4 "SRAM 512Kx8 55ns DIP32 RoHSconf" H 2600 6300 50  0001 L BNN "Field4"
F 5 "Alliance Memory," H 2600 6300 50  0001 L BNN "Field5"
F 6 "None" H 2600 6300 50  0001 L BNN "Field6"
F 7 "AS6C4008-55PCN" H 2600 6300 50  0001 L BNN "Field7"
F 8 "DIP-32 Alliance Semiconductor" H 2600 6300 50  0001 L BNN "Field8"
	1    2600 6300
	1    0    0    -1  
$EndComp
Entry Wire Line
	1500 5800 1600 5700
Entry Wire Line
	1500 5900 1600 5800
Entry Wire Line
	1500 6000 1600 5900
Entry Wire Line
	1500 6100 1600 6000
Entry Wire Line
	1500 6200 1600 6100
Entry Wire Line
	1500 6300 1600 6200
Entry Wire Line
	1500 6400 1600 6300
Entry Wire Line
	1500 6500 1600 6400
Entry Wire Line
	1500 6600 1600 6500
Entry Wire Line
	1500 6700 1600 6600
Entry Wire Line
	1500 6800 1600 6700
Entry Wire Line
	1500 6900 1600 6800
Entry Wire Line
	1500 7000 1600 6900
Entry Wire Line
	1500 7100 1600 7000
Entry Wire Line
	1500 7200 1600 7100
Entry Wire Line
	1500 7300 1600 7200
Entry Wire Line
	1500 7400 1600 7300
Entry Wire Line
	1500 7500 1600 7400
Entry Wire Line
	1500 7600 1600 7500
$Comp
L power:GND #PWR0107
U 1 1 5D50533F
P 1800 7800
F 0 "#PWR0107" H 1800 7550 50  0001 C CNN
F 1 "GND" H 1805 7627 50  0000 C CNN
F 2 "" H 1800 7800 50  0001 C CNN
F 3 "" H 1800 7800 50  0001 C CNN
	1    1800 7800
	1    0    0    -1  
$EndComp
Wire Wire Line
	1800 7800 1800 7700
Wire Wire Line
	1800 7700 1900 7700
Wire Wire Line
	1800 5000 1800 5100
Wire Wire Line
	1800 5100 1900 5100
Wire Wire Line
	3300 5100 3600 5100
Text Label 3350 5100 0    50   ~ 0
MD0
Wire Wire Line
	3300 5200 3600 5200
Wire Wire Line
	3300 5300 3600 5300
Wire Wire Line
	3300 5600 3600 5600
Wire Wire Line
	3300 5700 3600 5700
Text Label 3350 5200 0    50   ~ 0
MD1
Text Label 3350 5300 0    50   ~ 0
MD2
Text Label 3350 5600 0    50   ~ 0
MD5
Text Label 3350 5700 0    50   ~ 0
MD6
Wire Wire Line
	3300 5800 3600 5800
Text Label 3350 5800 0    50   ~ 0
MD7
Entry Wire Line
	3600 5100 3700 5200
Entry Wire Line
	3600 5200 3700 5300
Entry Wire Line
	3600 5600 3700 5700
Entry Wire Line
	3600 5700 3700 5800
Entry Wire Line
	3600 5800 3700 5900
$Comp
L AS6C4008-55PCN:AS6C4008-55PCN U505
U 1 1 5D50B8E9
P 5700 6300
F 0 "U505" H 5700 7870 50  0000 C CNN
F 1 "AS6C4008-55PCN" H 5700 7779 50  0000 C CNN
F 2 "Package_DIP:DIP-32_W15.24mm_Socket_LongPads" H 5700 6300 50  0001 L BNN
F 3 "Unavailable" H 5700 6300 50  0001 L BNN
F 4 "SRAM 512Kx8 55ns DIP32 RoHSconf" H 5700 6300 50  0001 L BNN "Field4"
F 5 "Alliance Memory," H 5700 6300 50  0001 L BNN "Field5"
F 6 "None" H 5700 6300 50  0001 L BNN "Field6"
F 7 "AS6C4008-55PCN" H 5700 6300 50  0001 L BNN "Field7"
F 8 "DIP-32 Alliance Semiconductor" H 5700 6300 50  0001 L BNN "Field8"
	1    5700 6300
	1    0    0    -1  
$EndComp
Entry Wire Line
	4600 5800 4700 5700
Entry Wire Line
	4600 5900 4700 5800
Entry Wire Line
	4600 6000 4700 5900
Entry Wire Line
	4600 6100 4700 6000
Entry Wire Line
	4600 6200 4700 6100
Entry Wire Line
	4600 6300 4700 6200
Entry Wire Line
	4600 6400 4700 6300
Entry Wire Line
	4600 6500 4700 6400
Entry Wire Line
	4600 6600 4700 6500
Entry Wire Line
	4600 6700 4700 6600
Entry Wire Line
	4600 6800 4700 6700
Entry Wire Line
	4600 6900 4700 6800
Entry Wire Line
	4600 7000 4700 6900
Entry Wire Line
	4600 7100 4700 7000
Entry Wire Line
	4600 7200 4700 7100
Entry Wire Line
	4600 7300 4700 7200
Entry Wire Line
	4600 7400 4700 7300
Entry Wire Line
	4600 7500 4700 7400
Entry Wire Line
	4600 7600 4700 7500
$Comp
L power:GND #PWR0109
U 1 1 5D50B928
P 4900 7800
F 0 "#PWR0109" H 4900 7550 50  0001 C CNN
F 1 "GND" H 4905 7627 50  0000 C CNN
F 2 "" H 4900 7800 50  0001 C CNN
F 3 "" H 4900 7800 50  0001 C CNN
	1    4900 7800
	1    0    0    -1  
$EndComp
Wire Wire Line
	4900 7800 4900 7700
Wire Wire Line
	4900 7700 5000 7700
Wire Wire Line
	4900 5000 4900 5100
Wire Wire Line
	4900 5100 5000 5100
Wire Wire Line
	6400 5100 6700 5100
Text Label 6450 5100 0    50   ~ 0
MD8
Wire Wire Line
	6400 5400 6700 5400
Wire Wire Line
	6400 5500 6700 5500
Wire Wire Line
	6400 5600 6700 5600
Wire Wire Line
	6400 5700 6700 5700
Text Label 6450 5400 0    50   ~ 0
MD11
Text Label 6450 5500 0    50   ~ 0
MD12
Text Label 6450 5600 0    50   ~ 0
MD13
Text Label 6450 5700 0    50   ~ 0
MD14
Wire Wire Line
	6400 5800 6700 5800
Text Label 6450 5800 0    50   ~ 0
MD15
Entry Wire Line
	6700 5100 6800 5200
Entry Wire Line
	6700 5400 6800 5500
Entry Wire Line
	6700 5500 6800 5600
Entry Wire Line
	6700 5600 6800 5700
Entry Wire Line
	6700 5700 6800 5800
Entry Wire Line
	6700 5800 6800 5900
Wire Bus Line
	6800 4300 9900 4300
Connection ~ 6800 4300
Wire Bus Line
	4600 4200 7700 4200
Connection ~ 4600 4200
Wire Bus Line
	3700 4300 6800 4300
Connection ~ 3700 4300
Wire Bus Line
	1500 4200 4600 4200
Connection ~ 1500 4200
Entry Wire Line
	3600 5300 3700 5400
$Comp
L Device:R R502
U 1 1 5D86FB8F
P 10250 2600
F 0 "R502" V 10350 2500 50  0000 L CNN
F 1 "10K" V 10250 2500 50  0000 L CNN
F 2 "Resistor_THT:R_Axial_DIN0207_L6.3mm_D2.5mm_P7.62mm_Horizontal" V 10180 2600 50  0001 C CNN
F 3 "~" H 10250 2600 50  0001 C CNN
	1    10250 2600
	1    0    0    -1  
$EndComp
$Comp
L Device:R R501
U 1 1 5D86FBEC
P 10100 2600
F 0 "R501" V 10000 2500 50  0000 L CNN
F 1 "10K" V 10100 2500 50  0000 L CNN
F 2 "Resistor_THT:R_Axial_DIN0207_L6.3mm_D2.5mm_P7.62mm_Horizontal" V 10030 2600 50  0001 C CNN
F 3 "~" H 10100 2600 50  0001 C CNN
	1    10100 2600
	1    0    0    -1  
$EndComp
$Comp
L power:GND #PWR0111
U 1 1 5D8D5E1F
P 10250 2850
F 0 "#PWR0111" H 10250 2600 50  0001 C CNN
F 1 "GND" H 10255 2677 50  0000 C CNN
F 2 "" H 10250 2850 50  0001 C CNN
F 3 "" H 10250 2850 50  0001 C CNN
	1    10250 2850
	1    0    0    -1  
$EndComp
$Comp
L power:GND #PWR0112
U 1 1 5D8D5E77
P 10100 2850
F 0 "#PWR0112" H 10100 2600 50  0001 C CNN
F 1 "GND" H 10105 2677 50  0000 C CNN
F 2 "" H 10100 2850 50  0001 C CNN
F 3 "" H 10100 2850 50  0001 C CNN
	1    10100 2850
	1    0    0    -1  
$EndComp
Wire Wire Line
	10100 2750 10100 2850
Wire Wire Line
	10250 2750 10250 2850
$Comp
L Device:R R504
U 1 1 5D8F7D61
P 9750 2600
F 0 "R504" V 9850 2500 50  0000 L CNN
F 1 "10K" V 9750 2500 50  0000 L CNN
F 2 "Resistor_THT:R_Axial_DIN0207_L6.3mm_D2.5mm_P7.62mm_Horizontal" V 9680 2600 50  0001 C CNN
F 3 "~" H 9750 2600 50  0001 C CNN
	1    9750 2600
	1    0    0    -1  
$EndComp
$Comp
L Device:R R503
U 1 1 5D8F7D67
P 9600 2600
F 0 "R503" V 9500 2500 50  0000 L CNN
F 1 "10K" V 9600 2500 50  0000 L CNN
F 2 "Resistor_THT:R_Axial_DIN0207_L6.3mm_D2.5mm_P7.62mm_Horizontal" V 9530 2600 50  0001 C CNN
F 3 "~" H 9600 2600 50  0001 C CNN
	1    9600 2600
	1    0    0    -1  
$EndComp
$Comp
L power:GND #PWR0113
U 1 1 5D8F7D6D
P 9750 2850
F 0 "#PWR0113" H 9750 2600 50  0001 C CNN
F 1 "GND" H 9755 2677 50  0000 C CNN
F 2 "" H 9750 2850 50  0001 C CNN
F 3 "" H 9750 2850 50  0001 C CNN
	1    9750 2850
	1    0    0    -1  
$EndComp
$Comp
L power:GND #PWR0114
U 1 1 5D8F7D73
P 9600 2850
F 0 "#PWR0114" H 9600 2600 50  0001 C CNN
F 1 "GND" H 9605 2677 50  0000 C CNN
F 2 "" H 9600 2850 50  0001 C CNN
F 3 "" H 9600 2850 50  0001 C CNN
	1    9600 2850
	1    0    0    -1  
$EndComp
Wire Wire Line
	9600 2750 9600 2850
Wire Wire Line
	9750 2750 9750 2850
Wire Wire Line
	9750 1800 9750 2450
Wire Wire Line
	9500 1900 9600 1900
Wire Wire Line
	9600 1900 9600 2450
Wire Bus Line
	950  4200 1500 4200
Wire Bus Line
	950  4300 3700 4300
Text HLabel 950  4200 0    50   Input ~ 0
MAR[17..35]
Text HLabel 950  4300 0    50   BiDi ~ 0
MD[0..35]
Text HLabel 950  4600 0    50   Input ~ 0
~MWE0R
Text HLabel 950  4500 0    50   Input ~ 0
~MOE0R
Text HLabel 950  4400 0    50   Input ~ 0
~MCS0R
$Comp
L Device:C C501
U 1 1 5D995E69
P 8200 5200
F 0 "C501" H 8000 5300 50  0000 L CNN
F 1 "0.1uF" H 7950 5100 50  0000 L CNN
F 2 "Capacitor_THT:C_Rect_L7.0mm_W2.0mm_P5.00mm" H 8238 5050 50  0001 C CNN
F 3 "~" H 8200 5200 50  0001 C CNN
	1    8200 5200
	1    0    0    -1  
$EndComp
$Comp
L Device:C C502
U 1 1 5D995FED
P 8600 5200
F 0 "C502" H 8400 5300 50  0000 L CNN
F 1 "0.1uF" H 8350 5100 50  0000 L CNN
F 2 "Capacitor_THT:C_Rect_L7.0mm_W2.0mm_P5.00mm" H 8638 5050 50  0001 C CNN
F 3 "~" H 8600 5200 50  0001 C CNN
	1    8600 5200
	1    0    0    -1  
$EndComp
$Comp
L Device:C C503
U 1 1 5D9A7F94
P 9000 5200
F 0 "C503" H 8800 5300 50  0000 L CNN
F 1 "0.1uF" H 8750 5100 50  0000 L CNN
F 2 "Capacitor_THT:C_Rect_L7.0mm_W2.0mm_P5.00mm" H 9038 5050 50  0001 C CNN
F 3 "~" H 9000 5200 50  0001 C CNN
	1    9000 5200
	1    0    0    -1  
$EndComp
$Comp
L Device:C C504
U 1 1 5D9A7F9A
P 9400 5200
F 0 "C504" H 9200 5300 50  0000 L CNN
F 1 "0.1uF" H 9150 5100 50  0000 L CNN
F 2 "Capacitor_THT:C_Rect_L7.0mm_W2.0mm_P5.00mm" H 9438 5050 50  0001 C CNN
F 3 "~" H 9400 5200 50  0001 C CNN
	1    9400 5200
	1    0    0    -1  
$EndComp
$Comp
L Device:C C505
U 1 1 5D9B9F08
P 9800 5200
F 0 "C505" H 9600 5300 50  0000 L CNN
F 1 "0.1uF" H 9550 5100 50  0000 L CNN
F 2 "Capacitor_THT:C_Rect_L7.0mm_W2.0mm_P5.00mm" H 9838 5050 50  0001 C CNN
F 3 "~" H 9800 5200 50  0001 C CNN
	1    9800 5200
	1    0    0    -1  
$EndComp
$Comp
L power:GND #PWR0115
U 1 1 5D9CBF40
P 7800 5450
F 0 "#PWR0115" H 7800 5200 50  0001 C CNN
F 1 "GND" H 7805 5277 50  0000 C CNN
F 2 "" H 7800 5450 50  0001 C CNN
F 3 "" H 7800 5450 50  0001 C CNN
	1    7800 5450
	1    0    0    -1  
$EndComp
Wire Wire Line
	7800 4950 7800 5050
Wire Wire Line
	7800 5050 8200 5050
Connection ~ 8200 5050
Wire Wire Line
	8200 5050 8600 5050
Connection ~ 8600 5050
Wire Wire Line
	8600 5050 9000 5050
Connection ~ 9000 5050
Wire Wire Line
	9000 5050 9400 5050
Connection ~ 9400 5050
Wire Wire Line
	9400 5050 9800 5050
Wire Wire Line
	7800 5450 7800 5350
Wire Wire Line
	7800 5350 8200 5350
Connection ~ 8200 5350
Wire Wire Line
	8200 5350 8600 5350
Connection ~ 8600 5350
Wire Wire Line
	8600 5350 9000 5350
Connection ~ 9000 5350
Wire Wire Line
	9000 5350 9400 5350
Connection ~ 9400 5350
Wire Wire Line
	9400 5350 9800 5350
$Comp
L power:VDD #PWR0102
U 1 1 5D71C9F2
P 1850 1100
F 0 "#PWR0102" H 1850 950 50  0001 C CNN
F 1 "VDD" H 1867 1273 50  0000 C CNN
F 2 "" H 1850 1100 50  0001 C CNN
F 3 "" H 1850 1100 50  0001 C CNN
	1    1850 1100
	1    0    0    -1  
$EndComp
$Comp
L power:VDD #PWR0106
U 1 1 5D71CA47
P 8050 1100
F 0 "#PWR0106" H 8050 950 50  0001 C CNN
F 1 "VDD" H 8067 1273 50  0000 C CNN
F 2 "" H 8050 1100 50  0001 C CNN
F 3 "" H 8050 1100 50  0001 C CNN
	1    8050 1100
	1    0    0    -1  
$EndComp
$Comp
L power:VDD #PWR0108
U 1 1 5D71CA6E
P 1800 5000
F 0 "#PWR0108" H 1800 4850 50  0001 C CNN
F 1 "VDD" H 1817 5173 50  0000 C CNN
F 2 "" H 1800 5000 50  0001 C CNN
F 3 "" H 1800 5000 50  0001 C CNN
	1    1800 5000
	1    0    0    -1  
$EndComp
$Comp
L power:VDD #PWR0110
U 1 1 5D71CA95
P 4900 5000
F 0 "#PWR0110" H 4900 4850 50  0001 C CNN
F 1 "VDD" H 4917 5173 50  0000 C CNN
F 2 "" H 4900 5000 50  0001 C CNN
F 3 "" H 4900 5000 50  0001 C CNN
	1    4900 5000
	1    0    0    -1  
$EndComp
$Comp
L power:VDD #PWR0116
U 1 1 5D71CABC
P 7800 4950
F 0 "#PWR0116" H 7800 4800 50  0001 C CNN
F 1 "VDD" H 7817 5123 50  0000 C CNN
F 2 "" H 7800 4950 50  0001 C CNN
F 3 "" H 7800 4950 50  0001 C CNN
	1    7800 4950
	1    0    0    -1  
$EndComp
Text Label 4750 1800 0    50   ~ 0
MAR35
Wire Wire Line
	4700 1800 5000 1800
Wire Wire Line
	4700 1900 5000 1900
Wire Wire Line
	4700 2000 5000 2000
Wire Wire Line
	4700 2100 5000 2100
Wire Wire Line
	4700 2200 5000 2200
Wire Wire Line
	4700 2300 5000 2300
Wire Wire Line
	4700 2400 5000 2400
Wire Wire Line
	4700 2500 5000 2500
Wire Wire Line
	4700 2600 5000 2600
Wire Wire Line
	4700 2700 5000 2700
Wire Wire Line
	4700 2800 5000 2800
Wire Wire Line
	4700 2900 5000 2900
Wire Wire Line
	4700 3000 5000 3000
Wire Wire Line
	4700 3100 5000 3100
Wire Wire Line
	4700 3200 5000 3200
Wire Wire Line
	4700 3300 5000 3300
Wire Wire Line
	4700 3400 5000 3400
Wire Wire Line
	4700 3500 5000 3500
Wire Wire Line
	4700 3600 5000 3600
Text Label 4750 1900 0    50   ~ 0
MAR34
Text Label 4750 2000 0    50   ~ 0
MAR33
Text Label 4750 2100 0    50   ~ 0
MAR32
Text Label 4750 2200 0    50   ~ 0
MAR31
Text Label 4750 2300 0    50   ~ 0
MAR30
Text Label 4750 2400 0    50   ~ 0
MAR29
Text Label 4750 2500 0    50   ~ 0
MAR28
Text Label 4750 2600 0    50   ~ 0
MAR27
Text Label 4750 2700 0    50   ~ 0
MAR26
Text Label 4750 2800 0    50   ~ 0
MAR25
Text Label 4750 2900 0    50   ~ 0
MAR24
Text Label 4750 3000 0    50   ~ 0
MAR23
Text Label 4750 3100 0    50   ~ 0
MAR22
Text Label 4750 3200 0    50   ~ 0
MAR21
Text Label 4750 3300 0    50   ~ 0
MAR20
Text Label 4750 3400 0    50   ~ 0
MAR19
Text Label 4750 3500 0    50   ~ 0
MAR18
Text Label 4750 3600 0    50   ~ 0
MAR17
Text Label 7850 1800 0    50   ~ 0
MAR35
Wire Wire Line
	7800 1800 8100 1800
Wire Wire Line
	7800 1900 8100 1900
Wire Wire Line
	7800 2000 8100 2000
Wire Wire Line
	7800 2100 8100 2100
Wire Wire Line
	7800 2200 8100 2200
Wire Wire Line
	7800 2300 8100 2300
Wire Wire Line
	7800 2400 8100 2400
Wire Wire Line
	7800 2500 8100 2500
Wire Wire Line
	7800 2600 8100 2600
Wire Wire Line
	7800 2700 8100 2700
Wire Wire Line
	7800 2800 8100 2800
Wire Wire Line
	7800 2900 8100 2900
Wire Wire Line
	7800 3000 8100 3000
Wire Wire Line
	7800 3100 8100 3100
Wire Wire Line
	7800 3200 8100 3200
Wire Wire Line
	7800 3300 8100 3300
Wire Wire Line
	7800 3400 8100 3400
Wire Wire Line
	7800 3500 8100 3500
Wire Wire Line
	7800 3600 8100 3600
Text Label 7850 1900 0    50   ~ 0
MAR34
Text Label 7850 2000 0    50   ~ 0
MAR33
Text Label 7850 2100 0    50   ~ 0
MAR32
Text Label 7850 2200 0    50   ~ 0
MAR31
Text Label 7850 2300 0    50   ~ 0
MAR30
Text Label 7850 2400 0    50   ~ 0
MAR29
Text Label 7850 2500 0    50   ~ 0
MAR28
Text Label 7850 2600 0    50   ~ 0
MAR27
Text Label 7850 2700 0    50   ~ 0
MAR26
Text Label 7850 2800 0    50   ~ 0
MAR25
Text Label 7850 2900 0    50   ~ 0
MAR24
Text Label 7850 3000 0    50   ~ 0
MAR23
Text Label 7850 3100 0    50   ~ 0
MAR22
Text Label 7850 3200 0    50   ~ 0
MAR21
Text Label 7850 3300 0    50   ~ 0
MAR20
Text Label 7850 3400 0    50   ~ 0
MAR19
Text Label 7850 3500 0    50   ~ 0
MAR18
Text Label 7850 3600 0    50   ~ 0
MAR17
Text Label 4750 5700 0    50   ~ 0
MAR35
Wire Wire Line
	4700 5700 5000 5700
Wire Wire Line
	4700 5800 5000 5800
Wire Wire Line
	4700 5900 5000 5900
Wire Wire Line
	4700 6000 5000 6000
Wire Wire Line
	4700 6100 5000 6100
Wire Wire Line
	4700 6200 5000 6200
Wire Wire Line
	4700 6300 5000 6300
Wire Wire Line
	4700 6400 5000 6400
Wire Wire Line
	4700 6500 5000 6500
Wire Wire Line
	4700 6600 5000 6600
Wire Wire Line
	4700 6700 5000 6700
Wire Wire Line
	4700 6800 5000 6800
Wire Wire Line
	4700 6900 5000 6900
Wire Wire Line
	4700 7000 5000 7000
Wire Wire Line
	4700 7100 5000 7100
Wire Wire Line
	4700 7200 5000 7200
Wire Wire Line
	4700 7300 5000 7300
Wire Wire Line
	4700 7400 5000 7400
Wire Wire Line
	4700 7500 5000 7500
Text Label 4750 5800 0    50   ~ 0
MAR34
Text Label 4750 5900 0    50   ~ 0
MAR33
Text Label 4750 6000 0    50   ~ 0
MAR32
Text Label 4750 6100 0    50   ~ 0
MAR31
Text Label 4750 6200 0    50   ~ 0
MAR30
Text Label 4750 6300 0    50   ~ 0
MAR29
Text Label 4750 6400 0    50   ~ 0
MAR28
Text Label 4750 6500 0    50   ~ 0
MAR27
Text Label 4750 6600 0    50   ~ 0
MAR26
Text Label 4750 6700 0    50   ~ 0
MAR25
Text Label 4750 6800 0    50   ~ 0
MAR24
Text Label 4750 6900 0    50   ~ 0
MAR23
Text Label 4750 7000 0    50   ~ 0
MAR22
Text Label 4750 7100 0    50   ~ 0
MAR21
Text Label 4750 7200 0    50   ~ 0
MAR20
Text Label 4750 7300 0    50   ~ 0
MAR19
Text Label 4750 7400 0    50   ~ 0
MAR18
Text Label 4750 7500 0    50   ~ 0
MAR17
Text Label 1650 5700 0    50   ~ 0
MAR35
Wire Wire Line
	1600 5700 1900 5700
Wire Wire Line
	1600 5800 1900 5800
Wire Wire Line
	1600 5900 1900 5900
Wire Wire Line
	1600 6000 1900 6000
Wire Wire Line
	1600 6100 1900 6100
Wire Wire Line
	1600 6200 1900 6200
Wire Wire Line
	1600 6300 1900 6300
Wire Wire Line
	1600 6400 1900 6400
Wire Wire Line
	1600 6500 1900 6500
Wire Wire Line
	1600 6600 1900 6600
Wire Wire Line
	1600 6700 1900 6700
Wire Wire Line
	1600 6800 1900 6800
Wire Wire Line
	1600 6900 1900 6900
Wire Wire Line
	1600 7000 1900 7000
Wire Wire Line
	1600 7100 1900 7100
Wire Wire Line
	1600 7200 1900 7200
Wire Wire Line
	1600 7300 1900 7300
Wire Wire Line
	1600 7400 1900 7400
Wire Wire Line
	1600 7500 1900 7500
Text Label 1650 5800 0    50   ~ 0
MAR34
Text Label 1650 5900 0    50   ~ 0
MAR33
Text Label 1650 6000 0    50   ~ 0
MAR32
Text Label 1650 6100 0    50   ~ 0
MAR31
Text Label 1650 6200 0    50   ~ 0
MAR30
Text Label 1650 6300 0    50   ~ 0
MAR29
Text Label 1650 6400 0    50   ~ 0
MAR28
Text Label 1650 6500 0    50   ~ 0
MAR27
Text Label 1650 6600 0    50   ~ 0
MAR26
Text Label 1650 6700 0    50   ~ 0
MAR25
Text Label 1650 6800 0    50   ~ 0
MAR24
Text Label 1650 6900 0    50   ~ 0
MAR23
Text Label 1650 7000 0    50   ~ 0
MAR22
Text Label 1650 7100 0    50   ~ 0
MAR21
Text Label 1650 7200 0    50   ~ 0
MAR20
Text Label 1650 7300 0    50   ~ 0
MAR19
Text Label 1650 7400 0    50   ~ 0
MAR18
Text Label 1650 7500 0    50   ~ 0
MAR17
Entry Wire Line
	3600 5400 3700 5500
Entry Wire Line
	3600 5500 3700 5600
Wire Wire Line
	3300 5400 3600 5400
Wire Wire Line
	3300 5500 3600 5500
Text Label 3350 5400 0    50   ~ 0
MD3
Text Label 3350 5500 0    50   ~ 0
MD4
Entry Wire Line
	6700 5200 6800 5300
Entry Wire Line
	6700 5300 6800 5400
Wire Wire Line
	6400 5200 6700 5200
Wire Wire Line
	6400 5300 6700 5300
Text Label 6450 5200 0    50   ~ 0
MD9
Text Label 6450 5300 0    50   ~ 0
MD10
Entry Wire Line
	9800 1500 9900 1600
Wire Wire Line
	9500 1800 9750 1800
Wire Wire Line
	9500 1700 10100 1700
Wire Wire Line
	10100 1700 10100 2450
Wire Wire Line
	10250 1600 10250 2450
Text HLabel 1000 750  0    50   Input ~ 0
~MWE1R
Text HLabel 1000 650  0    50   Input ~ 0
~MOE1R
Text HLabel 1000 550  0    50   Input ~ 0
~MCS1R
Wire Wire Line
	1850 1100 1850 1200
Wire Wire Line
	1850 1200 1900 1200
Wire Wire Line
	1900 1400 1700 1400
Wire Wire Line
	1000 550  1700 550 
Wire Wire Line
	1700 550  1700 1400
Wire Wire Line
	1900 1500 1600 1500
Wire Wire Line
	1600 1500 1600 650 
Wire Wire Line
	1000 650  1600 650 
Wire Wire Line
	1900 1600 1500 1600
Wire Wire Line
	1500 1600 1500 750 
Wire Wire Line
	1000 750  1500 750 
$Comp
L power:VDD #PWR0104
U 1 1 5D71CA20
P 4950 1100
F 0 "#PWR0104" H 4950 950 50  0001 C CNN
F 1 "VDD" H 4967 1273 50  0000 C CNN
F 2 "" H 4950 1100 50  0001 C CNN
F 3 "" H 4950 1100 50  0001 C CNN
	1    4950 1100
	1    0    0    -1  
$EndComp
Wire Wire Line
	4950 1100 4950 1200
Wire Wire Line
	4950 1200 5000 1200
Wire Wire Line
	5000 1400 4800 1400
Wire Wire Line
	4800 1400 4800 550 
Wire Wire Line
	5000 1500 4700 1500
Wire Wire Line
	4700 1500 4700 650 
Wire Wire Line
	5000 1600 4600 1600
Wire Wire Line
	4600 1600 4600 750 
Wire Wire Line
	1700 550  4800 550 
Connection ~ 1700 550 
Connection ~ 4800 550 
Wire Wire Line
	1600 650  4700 650 
Connection ~ 1600 650 
Connection ~ 4700 650 
Wire Wire Line
	1500 750  4600 750 
Connection ~ 1500 750 
Connection ~ 4600 750 
Wire Wire Line
	8050 1100 8050 1200
Wire Wire Line
	8050 1200 8100 1200
Wire Wire Line
	8100 1400 7900 1400
Wire Wire Line
	7900 1400 7900 550 
Wire Wire Line
	8100 1500 7800 1500
Wire Wire Line
	7800 1500 7800 650 
Wire Wire Line
	8100 1600 7700 1600
Wire Wire Line
	7700 1600 7700 750 
Wire Wire Line
	4800 550  7900 550 
Wire Wire Line
	4700 650  7800 650 
Wire Wire Line
	4600 750  7700 750 
Wire Wire Line
	950  4600 1100 4600
Wire Wire Line
	950  4500 1200 4500
Wire Wire Line
	950  4400 1300 4400
Wire Wire Line
	1900 5300 1300 5300
Wire Wire Line
	1300 5300 1300 4400
Connection ~ 1300 4400
Wire Wire Line
	1300 4400 4400 4400
Wire Wire Line
	1200 4500 1200 5400
Wire Wire Line
	1200 5400 1900 5400
Connection ~ 1200 4500
Wire Wire Line
	1200 4500 4300 4500
Wire Wire Line
	1100 4600 1100 5500
Wire Wire Line
	1100 5500 1900 5500
Connection ~ 1100 4600
Wire Wire Line
	1100 4600 4200 4600
Wire Wire Line
	4200 5500 4200 4600
Wire Wire Line
	4200 5500 5000 5500
Wire Wire Line
	4300 5400 4300 4500
Wire Wire Line
	4300 5400 5000 5400
Wire Wire Line
	4400 4400 4400 5300
Wire Wire Line
	4400 5300 5000 5300
Wire Wire Line
	9500 1600 10250 1600
Wire Bus Line
	9900 1200 9900 4300
Wire Bus Line
	6800 1200 6800 4300
Wire Bus Line
	3700 1200 3700 4300
Wire Bus Line
	3700 4300 3700 6000
Wire Bus Line
	6800 4300 6800 6000
Wire Bus Line
	4600 4200 4600 7700
Wire Bus Line
	1500 4200 1500 7700
Wire Bus Line
	7700 1800 7700 4200
Wire Bus Line
	1500 1850 1500 4200
Wire Bus Line
	4600 1800 4600 4200
$EndSCHEMATC
