G04 #@! TF.GenerationSoftware,KiCad,Pcbnew,(5.1.4-0-10_14)*
G04 #@! TF.CreationDate,2020-05-26T10:32:36-05:00*
G04 #@! TF.ProjectId,MulticompX,4d756c74-6963-46f6-9d70-582e6b696361,rev?*
G04 #@! TF.SameCoordinates,Original*
G04 #@! TF.FileFunction,Profile,NP*
%FSLAX46Y46*%
G04 Gerber Fmt 4.6, Leading zero omitted, Abs format (unit mm)*
G04 Created by KiCad (PCBNEW (5.1.4-0-10_14)) date 2020-05-26 10:32:36*
%MOMM*%
%LPD*%
G04 APERTURE LIST*
%ADD10C,0.150000*%
G04 APERTURE END LIST*
D10*
X220000000Y-18000000D02*
X220000000Y-148000000D01*
X109000000Y-18000000D02*
X220000000Y-18000000D01*
X109000000Y-148000000D02*
X109000000Y-18000000D01*
X220000000Y-148000000D02*
X109000000Y-148000000D01*
M02*
